<svg width="204" height="229" viewBox="0 0 204 229" fill="none" xmlns="http://www.w3.org/2000/svg">
<path d="M126.21 122.31C126.637 117.603 126.97 112.647 127.21 107.44C127.26 106.354 127.706 105.323 128.463 104.542C129.22 103.761 130.236 103.284 131.32 103.2C182.02 99.1999 203.17 80.5999 201.79 23.7099C193.79 16.2499 167.36 20.2099 167.33 24.7099C168.01 52.9699 176.85 69.3499 113.4 70.8899C59 72.1999 24.5 65.7199 11.99 63.2399C6.12999 80.7399 19.11 95.2399 23.91 95.8699C45.9989 99.958 68.3345 102.577 90.77 103.71C91.898 103.756 92.966 104.23 93.7559 105.037C94.5458 105.843 94.9979 106.921 95.02 108.05C95.53 138.05 90.96 182.05 47.89 182.05C26.26 182.05 11.36 176.86 11.36 176.86C11.36 176.86 1.35999 183.02 -0.0100098 203.25C-0.0100098 203.25 20.93 214.05 49.81 214.05C77.81 214.05 108.44 200.88 119.37 161.34C119.648 160.361 120.256 159.508 121.09 158.924C121.925 158.341 122.935 158.064 123.95 158.14C169.74 161.36 167.03 182.34 167.03 220.51C184.97 236.83 203.38 221.81 203.38 221.81C203.38 150.23 180.87 130.17 130.38 127.17C129.781 127.142 129.194 126.992 128.655 126.729C128.116 126.466 127.637 126.095 127.246 125.64C126.856 125.185 126.562 124.655 126.384 124.082C126.206 123.509 126.147 122.906 126.21 122.31Z" fill="url(#paint0_linear_1_26)"/>
<path d="M112.94 60.37C94.27 60.37 91.45 42.25 91.62 34.37C91.6311 33.9174 91.5498 33.4674 91.381 33.0473C91.2123 32.6273 90.9598 32.2461 90.6387 31.9269C90.3177 31.6078 89.935 31.3574 89.514 31.1912C89.0929 31.0249 88.6425 30.9462 88.19 30.96C76.59 31.31 41.45 29.96 41.45 1.57997C122.15 -1.30003 131.22 -0.630013 131.22 33.41C131.22 61.69 112.94 60.37 112.94 60.37Z" fill="url(#paint1_linear_1_26)"/>
<defs>
<linearGradient id="paint0_linear_1_26" x1="-44.84" y1="-40.7301" x2="219.67" y2="239.1" gradientUnits="userSpaceOnUse">
<stop offset="0.42" stop-color="#39AD39"/>
<stop offset="1" stop-color="#32CFD1"/>
</linearGradient>
<linearGradient id="paint1_linear_1_26" x1="-2.70006" y1="-80.57" x2="261.81" y2="199.26" gradientUnits="userSpaceOnUse">
<stop stop-color="#39AD39"/>
<stop offset="1" stop-color="#39AD64"/>
</linearGradient>
</defs>
</svg>
