{
    "title": "Главная страница",
    "services": [
        {
            "title": "Мобильная связь",
            "image": "../../img/image1.png",
            "buttonText": "Узнать тариф"
        },
        {
            "title": "Телевидение",
            "image": "../../img/image2.png",
            "buttonText": "Узнать тариф"
        },
        {
            "title": "Интернет",
            "image": "../../img/image3.png",
            "buttonText": "Узнать тариф"
        },
        {
            "title": "Домофония",
            "image": "../../img/image4.png",
            "buttonText": "Узнать тариф"
        }
    ],
    "business": [
        {
            "title": "L2/L3 VPN",
            "text": "Технология обеспечивает безопасное и защищенное соединение между удаленными сетями или устройствами.",
            "buttonText": "Оставить заявку"
        },
        {
            "title": "M2M",
            "text": "Автоматический обмен данными между устройствами, применяется в умных устройствах, промышленности и IoT.",
            "buttonText": "Оставить заявку"
        },
        {
            "title": "Private LTE",
            "text": "Частная беспроводная сеть LTE для организаций, обеспечивающая безопасное и эффективное подключение.",
            "buttonText": "Оставить заявку"
        },
        {
            "title": "BATC",
            "text": "Полный набор функций традиционной телефонии, но без использования устаревшего оборудования и проводов.",
            "buttonText": "Оставить заявку"
        },    {
            "title": "ЦОД Tier3",
            "text": "Инфраструктура и услуги колокации данных на уровне Tier 3. Высокая надежность и доступность для бизнеса.",
            "buttonText": "Оставить заявку"
        },
        {
            "title": "Мобильная связь",
            "text": "Корпоративные Узнать тариф, специальные предложения и другие преимущества для вашего бизнеса.",
            "buttonText": "Оставить заявку"
        }
    ]
}